.................
----------------------------------------------------------------------
Ran 17 tests in 0.042s

OK
Name             Stmts   Miss Branch BrPart  Cover   Missing
------------------------------------------------------------
Collatz.py          69      4     28      2    90%   39-42, 114->124
TestCollatz.py      73      0      2      0   100%
------------------------------------------------------------
TOTAL              142      4     30      2    94%
