.....................
----------------------------------------------------------------------
Ran 21 tests in 9.693s

OK
Name             Stmts   Miss Branch BrPart  Cover   Missing
------------------------------------------------------------
Collatz.py          57      0     30      0   100%
TestCollatz.py      85      0      0      0   100%
------------------------------------------------------------
TOTAL              142      0     30      0   100%
