.................
----------------------------------------------------------------------
Ran 17 tests in 0.032s

OK
Name             Stmts   Miss Branch BrPart  Cover   Missing
------------------------------------------------------------
Collatz.py          34      1     16      1    96%   42
TestCollatz.py      75      0      2      0   100%
------------------------------------------------------------
TOTAL              109      1     18      1    98%
